module gitlab.com/jhackenberg/broil

go 1.18

require (
	github.com/99designs/gqlgen v0.17.2
	github.com/gorilla/mux v1.8.0
	github.com/iancoleman/strcase v0.2.0
	github.com/kataras/golog v0.1.7
	github.com/pkg/errors v0.9.1
	github.com/robfig/cron/v3 v3.0.1
	github.com/rs/cors v1.8.2
	github.com/spf13/viper v1.10.1
	github.com/stretchr/testify v1.7.1
	github.com/vektah/gqlparser/v2 v2.4.0
)

require (
	github.com/agnivade/levenshtein v1.1.0 // indirect
	github.com/cpuguy83/go-md2man/v2 v2.0.1 // indirect
	github.com/davecgh/go-spew v1.1.1 // indirect
	github.com/fsnotify/fsnotify v1.5.1 // indirect
	github.com/gorilla/websocket v1.4.2 // indirect
	github.com/hashicorp/golang-lru v0.5.4 // indirect
	github.com/hashicorp/hcl v1.0.0 // indirect
	github.com/kataras/pio v0.0.10 // indirect
	github.com/magiconair/properties v1.8.5 // indirect
	github.com/matryer/moq v0.2.3 // indirect
	github.com/mitchellh/mapstructure v1.4.3 // indirect
	github.com/pelletier/go-toml v1.9.4 // indirect
	github.com/pmezard/go-difflib v1.0.0 // indirect
	github.com/russross/blackfriday/v2 v2.1.0 // indirect
	github.com/spf13/afero v1.6.0 // indirect
	github.com/spf13/cast v1.4.1 // indirect
	github.com/spf13/jwalterweatherman v1.1.0 // indirect
	github.com/spf13/pflag v1.0.5 // indirect
	github.com/subosito/gotenv v1.2.0 // indirect
	github.com/urfave/cli/v2 v2.3.0 // indirect
	golang.org/x/mod v0.5.1 // indirect
	golang.org/x/sys v0.0.0-20211210111614-af8b64212486 // indirect
	golang.org/x/text v0.3.7 // indirect
	golang.org/x/tools v0.1.9 // indirect
	golang.org/x/xerrors v0.0.0-20200804184101-5ec99f83aff1 // indirect
	gopkg.in/ini.v1 v1.66.2 // indirect
	gopkg.in/yaml.v2 v2.4.0 // indirect
	gopkg.in/yaml.v3 v3.0.0-20210107192922-496545a6307b // indirect
)
